838.79;2081.43;16.03;
869.20;1933.35;16.03;
719.34;1856.98;16.03;
638.97;2032.87;16.03;
2396.05;1450.89;0.03;
2230.79;545.90;80.03;
1396.88;-355.73;0.03;
1913.77;-1203.25;8.03;
1735.11;-3018.22;0.97;
3617.47;1906.32;0.03;
4520.42;815.97;0.03;
5736.65;282.36;0.03;
5934.24;-2627.34;-34.29;
3861.78;-2868.42;-1.30;
-162.04;-930.85;0.03;
-1512.90;945.08;0.03;
-1973.79;1221.78;8.03;
-551.35;-2869.20;9.01;
-2464.00;1737.84;0.03;
-2894.43;1591.12;245.45;
-3679.63;1982.68;-101.86;
-2151.49;-1580.74;0.98;
-2525.19;-206.35;0.03;
-3805.41;1194.91;-179.46;
-4360.61;1590.81;-397.22;
-856.70;1102.54;0.03;
-3254.26;2331.75;16.18;
-3755.90;3575.36;-248.42;
7527.97;163.53;-210.63;
2218.27;-698.62;80.03;
2025.62;-64.20;80.03;
7307.77;-2220.57;-241.50;
2875.56;943.15;80.03;
7511.15;-3874.15;-388.11;
5803.47;-4390.50;-390.90;
3643.97;342.70;80.03;
4430.30;-4566.51;-351.20;
3147.94;-500.97;16.03;
3335.92;-333.46;16.03;
3017.05;-4295.39;-250.79;
3283.74;-448.98;58.56;
1841.70;-3673.29;-12.45;
3844.95;-929.87;0.03;
843.25;-2884.04;0.71;
2979.24;-1847.42;0.03;
2300.98;3487.82;32.03;
4023.67;-2169.30;-200.64;
2589.60;4298.14;51.63;
3996.65;-2101.67;-207.26;
2997.10;4131.51;52.40;
4376.39;3749.90;-58.25;
1131.94;3751.45;8.03;
642.30;4096.13;0.03;
4342.85;3770.49;-49.40;
5104.61;3769.35;-40.17;
5635.21;4514.37;0.70;
1333.65;4567.22;24.03;
1842.56;5131.92;0.03;
6566.02;6883.30;-410.20;
5580.06;7201.40;-306.36;
4088.20;5486.95;0.03;
3947.32;7348.93;-393.33;
287.60;138.83;272.03;
248.16;-479.99;272.03;
-170.57;-366.89;112.03;
-99.96;291.99;408.03;
163.99;80.98;408.03;
571.12;6852.58;-195.87;
144.28;-205.61;544.03;
14.27;-430.44;544.03;
-559.15;7270.84;-275.37;
-181.35;646.97;480.03;
-675.76;180.18;480.03;
-365.61;5248.60;0.03;
-1107.63;605.71;480.03;
-16.31;4419.24;0.03;
-626.50;1095.62;480.03;
-661.56;3634.64;0.03;
-819.68;3469.42;0.03;
-1098.44;1244.46;256.03;
-944.43;3649.20;0.03;
-1272.92;1513.95;256.03;
-1660.49;4151.16;0.03;
-1683.71;3535.96;0.03;
-1008.23;2702.01;112.03;
-754.54;2903.14;320.03;
-2432.00;3206.98;14.74;
-2432.12;3515.61;0.03;
-1371.79;2571.00;192.03;
-2912.15;3544.51;272.17;
-1649.30;2746.11;192.03;
-3224.50;4043.10;125.42;
-3569.36;4589.56;-205.75;
-1632.96;2918.52;320.03;
-1508.96;3551.52;384.03;
-4492.65;4377.14;-471.97;
-4498.62;4398.22;-471.99;
-1763.21;3843.34;384.03;
-1640.33;4352.90;320.03;
-3542.56;-303.06;-255.96;
-1227.88;4557.45;320.03;
-3758.78;-1162.51;-254.04;
-652.49;4560.54;320.03;
-390.42;4287.85;320.03;
-4130.65;-1758.35;-367.56;
-4115.68;-1820.37;-369.92;
105.91;4489.17;320.03;
260.81;3864.19;320.03;
-63.96;3787.55;320.03;
-2961.20;-2687.52;-109.00;
-1937.32;-2455.04;0.03;
-1198.12;-2097.48;209.05;
377.26;-1951.11;247.99;
-352.77;-4446.46;-297.19;
-2226.08;-4596.27;-305.84;
7891.37;4141.37;-373.29;
-2127.70;-4173.52;-136.65;
7233.32;4002.81;-161.12;
6832.39;4058.54;-192.31;
7264.73;2179.44;-173.05;
2044.45;4046.76;2271.53;
1514.84;4228.61;2271.53;
2113.03;4245.38;2271.53;
1796.56;4139.81;2271.53;
2910.66;3070.44;2336.03;
2824.74;3192.65;2336.03;
2895.44;3298.01;2336.03;
3027.29;3292.42;2336.03;
3065.62;3072.02;2336.03;
3052.73;486.90;1125.03;
2879.81;45.88;1125.03;
2257.66;-262.86;1125.03;
2571.90;180.95;1125.03;
6826.84;-4448.95;-409.59;
6917.36;1192.31;-24.38;
6872.34;3550.25;-317.40;
7042.51;3530.51;-284.82;
6891.46;-648.03;78.52;
7550.67;5394.71;-392.56;
6562.72;-2090.22;33.57;
5218.80;-1189.03;396.53;
5299.96;-3239.06;84.16;
4856.70;-3487.51;106.86;
1888.44;3595.01;164.19;
1713.86;3589.21;164.19;
2980.02;-3577.00;18.98;
650.29;-374.97;132.19;
794.12;-446.40;132.19;
1031.12;-3684.85;-74.04;
-569.24;221.90;0.03;
699.95;-3716.44;76.75;
476.68;-3287.78;0.03;
4880.17;5386.76;-35.93;
-3165.28;5290.94;272.82;
